10.08.22 16:23
Text added into 5.txt at четверг, 11 августа 2022 г. 09:53:05 (MSK)
Text added into .txt at четверг, 11 августа 2022 г. 10:18:39 (MSK)
Text added into 5.txt at четверг, 11 августа 2022 г. 10:50:13 (MSK)
Text added into 5.txt at четверг, 11 августа 2022 г. 11:48:06 (MSK)
Text added into 5.txt at пятница, 12 августа 2022 г. 09:20:42 (MSK)
Text added into 5.txt at пятница, 12 августа 2022 г. 09:24:53 (MSK)
Text added into 5.txt at пятница, 12 августа 2022 г. 11:05:09 (MSK)
